assignment 2
…
thanksgiving_meals%>%
  mutate(family_income = fct_reorder(family_income, parse_number(family_income)))

## Warning: 136 parsing failures.
## row col expected               actual
##   8  -- a number Prefer not to answer
##  29  -- a number Prefer not to answer
##  32  -- a number Prefer not to answer
##  33  -- a number Prefer not to answer
##  38  -- a number Prefer not to answer
## ... ... ........ ....................
## See problems(...) for more details.

## # A tibble: 1,058 x 65
##        id celebrate main_dish main_dish_other main_prep main_prep_other stuffing
##     <dbl> <chr>     <chr>     <chr>           <chr>     <chr>           <chr>   
##  1 4.34e9 Yes       Turkey    <NA>            Baked     <NA>            Bread-b~
##  2 4.34e9 Yes       Turkey    <NA>            Baked     <NA>            Bread-b~
##  3 4.34e9 Yes       Turkey    <NA>            Roasted   <NA>            Rice-ba~
##  4 4.34e9 Yes       Turkey    <NA>            Baked     <NA>            Bread-b~
##  5 4.34e9 Yes       Tofurkey  <NA>            Baked     <NA>            Bread-b~
##  6 4.34e9 Yes       Turkey    <NA>            Roasted   <NA>            Rice-ba~
##  7 4.34e9 Yes       Turkey    <NA>            Baked     <NA>            Bread-b~
##  8 4.34e9 Yes       Turkey    <NA>            Baked     <NA>            Rice-ba~
##  9 4.34e9 Yes       Turkey    <NA>            Roasted   <NA>            Bread-b~
## 10 4.34e9 Yes       Other (p~ Turkey and Ham  Baked     <NA>            Bread-b~
## # ... with 1,048 more rows, and 58 more variables: stuffing_other <chr>,
## #   cranberry <chr>, cranberry_other <chr>, gravy <chr>, side1 <chr>,
## #   side2 <chr>, side3 <chr>, side4 <chr>, side5 <chr>, side6 <chr>,
## #   side7 <chr>, side8 <chr>, side9 <chr>, side10 <chr>, side11 <chr>,
## #   side12 <chr>, side13 <chr>, side14 <chr>, side15 <chr>, pie1 <chr>,
## #   pie2 <chr>, pie3 <chr>, pie4 <chr>, pie5 <chr>, pie6 <chr>, pie7 <chr>,
## #   pie8 <chr>, pie9 <chr>, pie10 <chr>, pie11 <chr>, pie12 <chr>, pie13 <chr>,
## #   dessert1 <chr>, dessert2 <chr>, dessert3 <chr>, dessert4 <chr>,
## #   dessert5 <chr>, dessert6 <chr>, dessert7 <chr>, dessert8 <chr>,
…
